%YAML 1.1
%TAG !u! tag:unity3d.com,2011:
--- !u!114 &11400000
MonoBehaviour:
  m_ObjectHideFlags: 0
  m_PrefabParentObject: {fileID: 0}
  m_PrefabInternal: {fileID: 0}
  m_GameObject: {fileID: 0}
  m_Enabled: 1
  m_EditorHideFlags: 0
  m_Script: {fileID: 11500000, guid: 6234e0be6f652cb48a63696eeb1715a3, type: 3}
  m_Name: IronToGear
  m_EditorClassIdentifier: 
  m_name: 
  m_featureType: 5
  m_basePowerConsumption: 0
  m_itemInput: 456a6ae3-30b7-4dfc-b79e-6fab85bfca71
  m_itemOutput: dab1462a-551f-4678-84e3-60fb15705418
  m_time: 5
