%YAML 1.1
%TAG !u! tag:unity3d.com,2011:
--- !u!114 &11400000
MonoBehaviour:
  m_ObjectHideFlags: 0
  m_PrefabParentObject: {fileID: 0}
  m_PrefabInternal: {fileID: 0}
  m_GameObject: {fileID: 0}
  m_Enabled: 1
  m_EditorHideFlags: 0
  m_Script: {fileID: 11500000, guid: 92c2c4c16b0a82643a45ce2548f65a17, type: 3}
  m_Name: Portal
  m_EditorClassIdentifier: 
  m_name: Portal
  m_featureType: 0
  m_basePowerConsumption: 0
